<svg width="32" height="23.6" xmlns="http://www.w3.org/2000/svg">

 <g>
  <title>background</title>
  <rect fill="none" id="canvas_background" height="402" width="582" y="-1" x="-1"/>
 </g>
 <g>
  <title>Layer 1</title>
  <polygon fill="#cccccc" points="        13.5,17.6 13.5,23.6 22,17.6 " id="Bttom_Fold"/>
  <polygon fill="#7f7f7f" points="13.5,23.6         10,16.6 32,0 13.5,17.6 " id="Fold"/>
  <polygon fill="#f8981d" points="        24,23.6 13.5,17.6 32,0 " id="Right_Wing"/>
  <polygon fill="#f8981d" points="10,16.6         0,14.6 32,0 " id="Left_Wing"/>
 </g>
</svg>